%YAML 1.1
%TAG !u! tag:unity3d.com,2011:
--- !u!29 &1
SceneSettings:
  m_ObjectHideFlags: 0
  m_PVSData: 
  m_PVSObjectsArray: []
  m_PVSPortalsArray: []
  m_OcclusionBakeSettings:
    smallestOccluder: 5
    smallestHole: .25
    backfaceThreshold: 100
--- !u!104 &2
RenderSettings:
  m_ObjectHideFlags: 0
  serializedVersion: 6
  m_Fog: 0
  m_FogColor: {r: .5, g: .5, b: .5, a: 1}
  m_FogMode: 3
  m_FogDensity: .00999999978
  m_LinearFogStart: 0
  m_LinearFogEnd: 300
  m_AmbientSkyColor: {r: .211999997, g: .226999998, b: .259000003, a: 1}
  m_AmbientEquatorColor: {r: .114, g: .125, b: .133000001, a: 1}
  m_AmbientGroundColor: {r: .0469999984, g: .0430000015, b: .0350000001, a: 1}
  m_AmbientIntensity: 1
  m_AmbientMode: 0
  m_SkyboxMaterial: {fileID: 10304, guid: 0000000000000000f000000000000000, type: 0}
  m_HaloStrength: .5
  m_FlareStrength: 1
  m_FlareFadeSpeed: 3
  m_HaloTexture: {fileID: 0}
  m_SpotCookie: {fileID: 10001, guid: 0000000000000000e000000000000000, type: 0}
  m_DefaultReflectionMode: 0
  m_DefaultReflectionResolution: 128
  m_ReflectionBounces: 1
  m_ReflectionIntensity: 1
  m_CustomReflection: {fileID: 0}
  m_Sun: {fileID: 0}
--- !u!127 &3
LevelGameManager:
  m_ObjectHideFlags: 0
--- !u!157 &4
LightmapSettings:
  m_ObjectHideFlags: 0
  serializedVersion: 5
  m_GIWorkflowMode: 0
  m_LightmapsMode: 1
  m_GISettings:
    serializedVersion: 2
    m_BounceScale: 1
    m_IndirectOutputScale: 1
    m_AlbedoBoost: 1
    m_TemporalCoherenceThreshold: 1
    m_EnvironmentLightingMode: 0
    m_EnableBakedLightmaps: 1
    m_EnableRealtimeLightmaps: 1
  m_LightmapEditorSettings:
    serializedVersion: 3
    m_Resolution: 2
    m_BakeResolution: 40
    m_TextureWidth: 1024
    m_TextureHeight: 1024
    m_AOMaxDistance: 1
    m_Padding: 2
    m_CompAOExponent: 0
    m_LightmapParameters: {fileID: 0}
    m_TextureCompression: 1
    m_FinalGather: 0
    m_FinalGatherRayCount: 1024
  m_LightmapSnapshot: {fileID: 0}
  m_RuntimeCPUUsage: 25
--- !u!196 &5
NavMeshSettings:
  serializedVersion: 2
  m_ObjectHideFlags: 0
  m_BuildSettings:
    serializedVersion: 2
    agentRadius: .5
    agentHeight: 2
    agentSlope: 45
    agentClimb: .400000006
    ledgeDropHeight: 0
    maxJumpAcrossDistance: 0
    accuratePlacement: 0
    minRegionArea: 2
    cellSize: .166666672
    manualCellSize: 0
  m_NavMeshData: {fileID: 0}
--- !u!114 &510671594 stripped
MonoBehaviour:
  m_PrefabParentObject: {fileID: 11452342, guid: ccb90f2cd7412434daf64cedba001ed1,
    type: 2}
  m_PrefabInternal: {fileID: 1666407888}
  m_Script: {fileID: 11500000, guid: 7c9defe5b1031454592d8c979e218dbe, type: 3}
--- !u!114 &510671599 stripped
MonoBehaviour:
  m_PrefabParentObject: {fileID: 11429816, guid: ccb90f2cd7412434daf64cedba001ed1,
    type: 2}
  m_PrefabInternal: {fileID: 1666407888}
  m_Script: {fileID: 11500000, guid: bdf64e4e259994fd985c91fb9c2b4e85, type: 3}
--- !u!114 &510671600 stripped
MonoBehaviour:
  m_PrefabParentObject: {fileID: 11457134, guid: ccb90f2cd7412434daf64cedba001ed1,
    type: 2}
  m_PrefabInternal: {fileID: 1666407888}
  m_Script: {fileID: 11500000, guid: 9a9ccd3e7fdb9465aa0ff9c7e0a2e043, type: 3}
--- !u!1001 &754583163
Prefab:
  m_ObjectHideFlags: 0
  serializedVersion: 2
  m_Modification:
    m_TransformParent: {fileID: 0}
    m_Modifications:
    - target: {fileID: 424998, guid: 67bffd72256d34c4cabff18b54684aa2, type: 2}
      propertyPath: m_LocalPosition.x
      value: 0
      objectReference: {fileID: 0}
    - target: {fileID: 424998, guid: 67bffd72256d34c4cabff18b54684aa2, type: 2}
      propertyPath: m_LocalPosition.y
      value: 0
      objectReference: {fileID: 0}
    - target: {fileID: 424998, guid: 67bffd72256d34c4cabff18b54684aa2, type: 2}
      propertyPath: m_LocalPosition.z
      value: 0
      objectReference: {fileID: 0}
    - target: {fileID: 424998, guid: 67bffd72256d34c4cabff18b54684aa2, type: 2}
      propertyPath: m_LocalRotation.x
      value: 0
      objectReference: {fileID: 0}
    - target: {fileID: 424998, guid: 67bffd72256d34c4cabff18b54684aa2, type: 2}
      propertyPath: m_LocalRotation.y
      value: 0
      objectReference: {fileID: 0}
    - target: {fileID: 424998, guid: 67bffd72256d34c4cabff18b54684aa2, type: 2}
      propertyPath: m_LocalRotation.z
      value: 0
      objectReference: {fileID: 0}
    - target: {fileID: 424998, guid: 67bffd72256d34c4cabff18b54684aa2, type: 2}
      propertyPath: m_LocalRotation.w
      value: 1
      objectReference: {fileID: 0}
    - target: {fileID: 424998, guid: 67bffd72256d34c4cabff18b54684aa2, type: 2}
      propertyPath: m_RootOrder
      value: 2
      objectReference: {fileID: 0}
    m_RemovedComponents: []
  m_ParentPrefab: {fileID: 100100000, guid: 67bffd72256d34c4cabff18b54684aa2, type: 2}
  m_IsPrefabParent: 0
--- !u!1 &884285025 stripped
GameObject:
  m_PrefabParentObject: {fileID: 121548, guid: ecaf8c2a218224601860913a1b5e9761, type: 2}
  m_PrefabInternal: {fileID: 1829489896}
--- !u!1001 &1666407888
Prefab:
  m_ObjectHideFlags: 0
  serializedVersion: 2
  m_Modification:
    m_TransformParent: {fileID: 0}
    m_Modifications:
    - target: {fileID: 410916, guid: ccb90f2cd7412434daf64cedba001ed1, type: 2}
      propertyPath: m_LocalPosition.x
      value: 0
      objectReference: {fileID: 0}
    - target: {fileID: 410916, guid: ccb90f2cd7412434daf64cedba001ed1, type: 2}
      propertyPath: m_LocalPosition.y
      value: 1
      objectReference: {fileID: 0}
    - target: {fileID: 410916, guid: ccb90f2cd7412434daf64cedba001ed1, type: 2}
      propertyPath: m_LocalPosition.z
      value: -10
      objectReference: {fileID: 0}
    - target: {fileID: 410916, guid: ccb90f2cd7412434daf64cedba001ed1, type: 2}
      propertyPath: m_LocalRotation.x
      value: 0
      objectReference: {fileID: 0}
    - target: {fileID: 410916, guid: ccb90f2cd7412434daf64cedba001ed1, type: 2}
      propertyPath: m_LocalRotation.y
      value: 0
      objectReference: {fileID: 0}
    - target: {fileID: 410916, guid: ccb90f2cd7412434daf64cedba001ed1, type: 2}
      propertyPath: m_LocalRotation.z
      value: 0
      objectReference: {fileID: 0}
    - target: {fileID: 410916, guid: ccb90f2cd7412434daf64cedba001ed1, type: 2}
      propertyPath: m_LocalRotation.w
      value: 1
      objectReference: {fileID: 0}
    - target: {fileID: 410916, guid: ccb90f2cd7412434daf64cedba001ed1, type: 2}
      propertyPath: m_RootOrder
      value: 0
      objectReference: {fileID: 0}
    - target: {fileID: 11429816, guid: ccb90f2cd7412434daf64cedba001ed1, type: 2}
      propertyPath: pauseMenuPanel
      value: 
      objectReference: {fileID: 1737050905}
    - target: {fileID: 11457134, guid: ccb90f2cd7412434daf64cedba001ed1, type: 2}
      propertyPath: levelLabelPrefab
      value: 
      objectReference: {fileID: 1761468559}
    - target: {fileID: 11457134, guid: ccb90f2cd7412434daf64cedba001ed1, type: 2}
      propertyPath: myCanvas
      value: 
      objectReference: {fileID: 1939110154}
    - target: {fileID: 11457134, guid: ccb90f2cd7412434daf64cedba001ed1, type: 2}
      propertyPath: levelMenuPanel
      value: 
      objectReference: {fileID: 884285025}
    m_RemovedComponents: []
  m_ParentPrefab: {fileID: 100100000, guid: ccb90f2cd7412434daf64cedba001ed1, type: 2}
  m_IsPrefabParent: 0
--- !u!1 &1737050905 stripped
GameObject:
  m_PrefabParentObject: {fileID: 148590, guid: ecaf8c2a218224601860913a1b5e9761, type: 2}
  m_PrefabInternal: {fileID: 1829489896}
--- !u!1 &1761468559 stripped
GameObject:
  m_PrefabParentObject: {fileID: 152334, guid: ecaf8c2a218224601860913a1b5e9761, type: 2}
  m_PrefabInternal: {fileID: 1829489896}
--- !u!1001 &1829489896
Prefab:
  m_ObjectHideFlags: 0
  serializedVersion: 2
  m_Modification:
    m_TransformParent: {fileID: 0}
    m_Modifications:
    - target: {fileID: 22456854, guid: ecaf8c2a218224601860913a1b5e9761, type: 2}
      propertyPath: m_LocalPosition.x
      value: 0
      objectReference: {fileID: 0}
    - target: {fileID: 22456854, guid: ecaf8c2a218224601860913a1b5e9761, type: 2}
      propertyPath: m_LocalPosition.y
      value: 0
      objectReference: {fileID: 0}
    - target: {fileID: 22456854, guid: ecaf8c2a218224601860913a1b5e9761, type: 2}
      propertyPath: m_LocalPosition.z
      value: 0
      objectReference: {fileID: 0}
    - target: {fileID: 22456854, guid: ecaf8c2a218224601860913a1b5e9761, type: 2}
      propertyPath: m_LocalRotation.x
      value: 0
      objectReference: {fileID: 0}
    - target: {fileID: 22456854, guid: ecaf8c2a218224601860913a1b5e9761, type: 2}
      propertyPath: m_LocalRotation.y
      value: 0
      objectReference: {fileID: 0}
    - target: {fileID: 22456854, guid: ecaf8c2a218224601860913a1b5e9761, type: 2}
      propertyPath: m_LocalRotation.z
      value: 0
      objectReference: {fileID: 0}
    - target: {fileID: 22456854, guid: ecaf8c2a218224601860913a1b5e9761, type: 2}
      propertyPath: m_LocalRotation.w
      value: 1
      objectReference: {fileID: 0}
    - target: {fileID: 22456854, guid: ecaf8c2a218224601860913a1b5e9761, type: 2}
      propertyPath: m_RootOrder
      value: 1
      objectReference: {fileID: 0}
    - target: {fileID: 22456854, guid: ecaf8c2a218224601860913a1b5e9761, type: 2}
      propertyPath: m_AnchoredPosition.x
      value: 0
      objectReference: {fileID: 0}
    - target: {fileID: 22456854, guid: ecaf8c2a218224601860913a1b5e9761, type: 2}
      propertyPath: m_AnchoredPosition.y
      value: 0
      objectReference: {fileID: 0}
    - target: {fileID: 22456854, guid: ecaf8c2a218224601860913a1b5e9761, type: 2}
      propertyPath: m_SizeDelta.x
      value: 0
      objectReference: {fileID: 0}
    - target: {fileID: 22456854, guid: ecaf8c2a218224601860913a1b5e9761, type: 2}
      propertyPath: m_SizeDelta.y
      value: 0
      objectReference: {fileID: 0}
    - target: {fileID: 22456854, guid: ecaf8c2a218224601860913a1b5e9761, type: 2}
      propertyPath: m_AnchorMin.x
      value: 0
      objectReference: {fileID: 0}
    - target: {fileID: 22456854, guid: ecaf8c2a218224601860913a1b5e9761, type: 2}
      propertyPath: m_AnchorMin.y
      value: 0
      objectReference: {fileID: 0}
    - target: {fileID: 22456854, guid: ecaf8c2a218224601860913a1b5e9761, type: 2}
      propertyPath: m_AnchorMax.x
      value: 0
      objectReference: {fileID: 0}
    - target: {fileID: 22456854, guid: ecaf8c2a218224601860913a1b5e9761, type: 2}
      propertyPath: m_AnchorMax.y
      value: 0
      objectReference: {fileID: 0}
    - target: {fileID: 22456854, guid: ecaf8c2a218224601860913a1b5e9761, type: 2}
      propertyPath: m_Pivot.x
      value: 0
      objectReference: {fileID: 0}
    - target: {fileID: 22456854, guid: ecaf8c2a218224601860913a1b5e9761, type: 2}
      propertyPath: m_Pivot.y
      value: 0
      objectReference: {fileID: 0}
    - target: {fileID: 11405090, guid: ecaf8c2a218224601860913a1b5e9761, type: 2}
      propertyPath: m_OnClick.m_PersistentCalls.m_Calls.Array.data[0].m_Target
      value: 
      objectReference: {fileID: 510671599}
    - target: {fileID: 11412804, guid: ecaf8c2a218224601860913a1b5e9761, type: 2}
      propertyPath: m_OnClick.m_PersistentCalls.m_Calls.Array.data[0].m_Target
      value: 
      objectReference: {fileID: 510671600}
    - target: {fileID: 11412804, guid: ecaf8c2a218224601860913a1b5e9761, type: 2}
      propertyPath: m_OnClick.m_PersistentCalls.m_Calls.Array.data[1].m_Target
      value: 
      objectReference: {fileID: 510671600}
    - target: {fileID: 11411622, guid: ecaf8c2a218224601860913a1b5e9761, type: 2}
      propertyPath: m_OnClick.m_PersistentCalls.m_Calls.Array.data[0].m_Target
      value: 
      objectReference: {fileID: 510671600}
    - target: {fileID: 11411622, guid: ecaf8c2a218224601860913a1b5e9761, type: 2}
      propertyPath: m_OnClick.m_PersistentCalls.m_Calls.Array.data[1].m_Target
      value: 
      objectReference: {fileID: 510671600}
    - target: {fileID: 11404246, guid: ecaf8c2a218224601860913a1b5e9761, type: 2}
      propertyPath: m_OnClick.m_PersistentCalls.m_Calls.Array.data[0].m_Target
      value: 
      objectReference: {fileID: 510671600}
    - target: {fileID: 11404246, guid: ecaf8c2a218224601860913a1b5e9761, type: 2}
      propertyPath: m_OnClick.m_PersistentCalls.m_Calls.Array.data[1].m_Target
      value: 
      objectReference: {fileID: 510671600}
    - target: {fileID: 11469572, guid: ecaf8c2a218224601860913a1b5e9761, type: 2}
      propertyPath: m_OnClick.m_PersistentCalls.m_Calls.Array.data[0].m_Target
      value: 
      objectReference: {fileID: 510671599}
    - target: {fileID: 11401668, guid: ecaf8c2a218224601860913a1b5e9761, type: 2}
      propertyPath: m_OnClick.m_PersistentCalls.m_Calls.Array.data[0].m_Target
      value: 
      objectReference: {fileID: 510671599}
    - target: {fileID: 11471328, guid: ecaf8c2a218224601860913a1b5e9761, type: 2}
      propertyPath: m_OnClick.m_PersistentCalls.m_Calls.Array.data[0].m_Target
      value: 
      objectReference: {fileID: 510671599}
    - target: {fileID: 11471108, guid: ecaf8c2a218224601860913a1b5e9761, type: 2}
      propertyPath: m_OnClick.m_PersistentCalls.m_Calls.Array.data[0].m_Target
      value: 
      objectReference: {fileID: 510671600}
    - target: {fileID: 11471108, guid: ecaf8c2a218224601860913a1b5e9761, type: 2}
      propertyPath: m_OnClick.m_PersistentCalls.m_Calls.Array.data[1].m_Target
      value: 
      objectReference: {fileID: 510671600}
    - target: {fileID: 11421444, guid: ecaf8c2a218224601860913a1b5e9761, type: 2}
      propertyPath: m_OnClick.m_PersistentCalls.m_Calls.Array.data[0].m_Target
      value: 
      objectReference: {fileID: 510671600}
    - target: {fileID: 11421444, guid: ecaf8c2a218224601860913a1b5e9761, type: 2}
      propertyPath: m_OnClick.m_PersistentCalls.m_Calls.Array.data[1].m_Target
      value: 
      objectReference: {fileID: 510671600}
    - target: {fileID: 11400526, guid: ecaf8c2a218224601860913a1b5e9761, type: 2}
      propertyPath: m_OnClick.m_PersistentCalls.m_Calls.Array.data[0].m_Target
      value: 
      objectReference: {fileID: 510671600}
    - target: {fileID: 11403510, guid: ecaf8c2a218224601860913a1b5e9761, type: 2}
      propertyPath: m_OnClick.m_PersistentCalls.m_Calls.Array.data[0].m_Target
      value: 
      objectReference: {fileID: 510671600}
    - target: {fileID: 11483420, guid: ecaf8c2a218224601860913a1b5e9761, type: 2}
      propertyPath: m_OnClick.m_PersistentCalls.m_Calls.Array.data[0].m_Target
      value: 
      objectReference: {fileID: 510671594}
    - target: {fileID: 11483718, guid: ecaf8c2a218224601860913a1b5e9761, type: 2}
      propertyPath: m_OnClick.m_PersistentCalls.m_Calls.Array.data[0].m_Target
      value: 
      objectReference: {fileID: 510671600}
    m_RemovedComponents: []
  m_ParentPrefab: {fileID: 100100000, guid: ecaf8c2a218224601860913a1b5e9761, type: 2}
  m_IsPrefabParent: 0
--- !u!223 &1939110154 stripped
Canvas:
  m_PrefabParentObject: {fileID: 22355936, guid: ecaf8c2a218224601860913a1b5e9761,
    type: 2}
  m_PrefabInternal: {fileID: 1829489896}
